1.000000   -0.000257   -0.000514
1.000000   0.000257   -0.000514
1.000000   0.000257   0.000514
1.000000   -0.000257   0.000514
1.000000   0.000771   -0.000514
1.000000   0.000770   0.000514
1.000000   0.001285   -0.000513
1.000000   0.001284   0.000514
1.000000   0.001285   -0.000513
1.000000   0.001284   0.000514
1.000000   0.001798   -0.000513
1.000000   0.001797   0.000515
1.000000   0.002312   -0.000512
1.000000   0.002311   0.000515
