1.000000000000000   -0.000513847704021   -0.000513680240218
1.000000000000000   -0.000513512798657   0.000513680240207
1.000000000000000   -0.000513178111444   0.001540371519006
1.000000000000000   -0.000512843641984   0.002566394812933
1.000000000000000   -0.000512509389883   0.003591751336430
1.000000000000000   -0.000512175354744   0.004616442301630
1.000000000000000   0.000513847704021   -0.000513680240218
1.000000000000000   0.000513512798657   0.000513680240207
1.000000000000000   0.000513178111444   0.001540371519006
1.000000000000000   0.000512843641984   0.002566394812933
1.000000000000000   0.000512509389883   0.003591751336430
1.000000000000000   0.000512175354744   0.004616442301630
