1.000000   -0.000514   -0.000514
1.000000   0.000514   -0.000514
1.000000   0.000514   0.000514
1.000000   -0.000514   0.000514
1.000000   0.001542   -0.000513
1.000000   0.001541   0.000514
1.000000   0.002569   -0.000512
1.000000   0.002568   0.000516
1.000000   0.002569   -0.000512
1.000000   0.002568   0.000516
1.000000   0.003597   -0.000510
1.000000   0.003595   0.000518
