0.999999809614125   -0.000436332257618   -0.000436332299153
0.999999809614125   -0.000436332257618   0.000436332299153
0.999999809614125   0.000436332257618   -0.000436332299153
0.999999809614125   0.000436332257618   0.000436332299153
0.999999047880288   0.000436768257229   -0.001308996565174
0.999999809423644   0.000436768589847   -0.000436332299153
0.999999809423644   0.000436768589847   0.000436332299153
0.999998285956740   0.001309431775274   -0.001308996565174
0.999999047499516   0.001309432772464   -0.000436332299153
0.999999047499516   0.001309432772464   0.000436332299153
