1.000000   -0.000514   -0.000514
1.000000   0.000514   -0.000514
1.000000   0.000514   0.000514
1.000000   -0.000514   0.000514
1.000000   0.001542   -0.000513
1.000000   0.001541   0.000514
1.000000   0.001593   -0.000513
1.000000   0.001592   0.000514
1.000000   0.002621   -0.000512
1.000000   0.002619   0.000516
