1.000000   -0.000514   -0.000514
1.000000   0.000514   -0.000514
1.000000   0.000514   0.000514
1.000000   -0.000514   0.000514
1.000000   0.000515   -0.000514
1.000000   0.000515   0.000514
1.000000   0.001548   -0.000513
1.000000   0.001542   0.000514
1.000000   0.001642   -0.000513
1.000000   0.001643   0.000514
1.000000   0.002672   -0.000511
1.000000   0.002670   0.000516
