1.000000   -0.000257   -0.000257
1.000000   0.000257   -0.000257
1.000000   0.000257   0.000257
1.000000   -0.000257   0.000257
1.000000   0.000771   -0.000257
1.000000   0.000770   0.000257
1.000000   0.000257   0.000770
1.000000   -0.000257   0.000770
1.000000   0.000770   0.000771
1.000000   0.001284   -0.000256
1.000000   0.001284   0.000257
1.000000   0.001284   -0.000256
1.000000   0.001284   0.000257
1.000000   0.001284   0.000771
1.000000   0.001284   0.000771
1.000000   0.001798   -0.000256
1.000000   0.001798   0.000258
1.000000   0.001797   0.000771
1.000000   0.002312   -0.000255
1.000000   0.002311   0.000259
1.000000   0.002310   0.000772
