> 
# @P
196.782130 68.802035
209.217870 68.802035
209.317870 68.702035
196.682130 68.702035
196.782130 68.802035
> 
# @P
209.217870 68.802035
211.256377 74.197965
211.356377 74.297965
209.317870 68.702035
209.217870 68.802035
> 
# @P
211.256377 74.197965
194.743623 74.197965
194.643623 74.297965
211.356377 74.297965
211.256377 74.197965
> 
# @P
194.743623 74.197965
196.782130 68.802035
196.682130 68.702035
194.643623 74.297965
194.743623 74.197965
