> 
# @P
197.392617 69.500000
206.607383 69.500000
206.707383 69.400000
197.292617 69.400000
197.392617 69.500000
> 
# @P
206.607383 69.500000
206.607383 72.500000
206.707383 72.600000
206.707383 69.400000
206.607383 69.500000
> 
# @P
206.607383 72.500000
197.392617 72.500000
197.292617 72.600000
206.707383 72.600000
206.607383 72.500000
> 
# @P
197.392617 72.500000
197.392617 69.500000
197.292617 69.400000
197.292617 72.600000
197.392617 72.500000
