> 
# @P
195.907453 69.248000
210.092547 69.248000
210.192547 69.148000
195.807453 69.148000
195.907453 69.248000
> 
# @P
210.092547 69.248000
210.092547 73.752000
210.192547 73.852000
210.192547 69.148000
210.092547 69.248000
> 
# @P
210.092547 73.752000
195.907453 73.752000
195.807453 73.852000
210.192547 73.852000
210.092547 73.752000
> 
# @P
195.907453 73.752000
195.907453 69.248000
195.807453 69.148000
195.807453 73.852000
195.907453 73.752000
