> 
# @P
-2.500000 -2.500000
2.500000 -2.500000
2.600000 -2.600000
-2.600000 -2.600000
-2.500000 -2.500000
> 
# @P
2.500000 -2.500000
2.500000 2.500000
2.600000 2.600000
2.600000 -2.600000
2.500000 -2.500000
> 
# @P
2.500000 2.500000
-2.500000 2.500000
-2.600000 2.600000
2.600000 2.600000
2.500000 2.500000
> 
# @P
-2.500000 2.500000
-2.500000 -2.500000
-2.600000 -2.600000
-2.600000 2.600000
-2.500000 2.500000
