1.000000   0.002719   0.002915
1.000000   0.002776   0.002884
1.000000   0.002852   0.002899
1.000000   0.002738   0.003012
1.000000   0.002885   0.002953
1.000000   0.002869   0.002970
1.000000   0.002895   0.002970
1.000000   0.002824   0.003016
1.000000   0.002813   0.003026
1.000000   0.002841   0.003047
1.000000   0.002922   0.003018
1.000000   0.002895   0.003046
1.000000   0.002533   0.002501
1.000000   0.004287   0.002504
1.000000   0.004288   0.002114
1.000000   0.002534   0.002110
1.000000   0.004285   0.003443
1.000000   0.002532   0.003439
1.000000   0.002531   0.003830
1.000000   0.004284   0.003834
1.000000   0.004287   0.002504
1.000000   0.004285   0.003443
1.000000   0.004772   0.003444
1.000000   0.004774   0.002506
1.000000   0.002532   0.003439
1.000000   0.002533   0.002501
1.000000   0.002046   0.002501
1.000000   0.002045   0.003439
