0.999992   0.002421   0.003122
0.999992   0.002449   0.003106
0.999992   0.002411   0.003164
0.999992   0.002483   0.003118
0.999992   0.002608   0.003024
0.999992   0.002565   0.003087
0.999992   0.002666   0.003022
0.999992   0.002463   0.003193
0.999992   0.002491   0.003176
0.999992   0.002436   0.003254
0.999992   0.002487   0.003220
0.999992   0.002613   0.003162
0.999992   0.002714   0.003098
0.999992   0.002555   0.003236
0.999991   0.002662   0.003163
0.999991   0.002818   0.003033
0.999991   0.002769   0.003099
0.999991   0.002453   0.003362
0.999991   0.002873   0.003033
0.999991   0.002585   0.003297
0.999991   0.002570   0.003315
0.999991   0.002594   0.003315
0.999991   0.002530   0.003366
0.999991   0.002521   0.003378
0.999991   0.002711   0.003240
0.999991   0.002703   0.003249
0.999991   0.002670   0.003292
0.999991   0.002814   0.003175
0.999991   0.002653   0.003313
0.999991   0.002545   0.003401
0.999991   0.002738   0.003253
0.999991   0.002618   0.003369
0.999991   0.002922   0.003111
0.999991   0.002594   0.003401
0.999991   0.002688   0.003331
0.999991   0.002874   0.003177
0.999991   0.002664   0.003368
0.999991   0.002759   0.003298
0.999991   0.002738   0.003331
0.999991   0.002619   0.003456
0.999991   0.002691   0.003414
0.999991   0.002810   0.003317
0.999990   0.002665   0.003456
0.999990   0.002772   0.003379
0.999990   0.002881   0.003313
0.999990   0.002823   0.003456
0.999990   0.002926   0.003388
0.999990   0.002888   0.003450
