> 
# @P
-1.500000 -1.500000
1.500000 -1.500000
1.600000 -1.600000
-1.600000 -1.600000
-1.500000 -1.500000
> 
# @P
1.500000 -1.500000
1.500000 1.500000
1.600000 1.600000
1.600000 -1.600000
1.500000 -1.500000
> 
# @P
1.500000 1.500000
-1.500000 1.500000
-1.600000 1.600000
1.600000 1.600000
1.500000 1.500000
> 
# @P
-1.500000 1.500000
-1.500000 -1.500000
-1.600000 -1.600000
-1.600000 1.600000
-1.500000 1.500000
