0.999998   -0.001745   -0.000436
1.000000   -0.000873   -0.000436
1.000000   -0.000873   0.000436
0.999998   -0.001745   0.000436
1.000000   -0.000000   -0.000436
1.000000   -0.000000   0.000436
1.000000   0.000873   -0.000436
1.000000   0.000873   0.000436
0.999998   0.001745   -0.000436
0.999998   0.001745   0.000436
