1.000000000000000   -0.009296594660080   -0.009704017649201
1.000000000000000   -0.009294409345052   -0.009331325645662
1.000000000000000   -0.009289747134357   -0.008536214358545
1.000000000000000   -0.009284965174356   -0.007720680565543
1.000000000000000   -0.009282182155551   -0.007246053868122
1.000000000000000   -0.009276974902386   -0.006357988948316
1.000000000000000   -0.009271979971188   -0.005506134230830
1.000000000000000   -0.009267783284369   -0.004790415170299
1.000000000000000   -0.009263707015620   -0.004095232669084
1.000000000000000   -0.009259346744091   -0.003351615244868
1.000000000000000   -0.009255387126494   -0.002676326878375
1.000000000000000   -0.009254892219542   -0.002591923549250
1.000000000000000   -0.009250099754294   -0.001774598151012
1.000000000000000   -0.009246579153355   -0.001174181368692
1.000000000000000   -0.009242269622852   -0.000439217513544
1.000000000000000   -0.009237452377768   0.000382333932835
1.000000000000000   -0.009233270274764   0.001095565813602
1.000000000000000   -0.009228582140463   0.001895098211995
1.000000000000000   -0.009224217286311   0.002639497174398
1.000000000000000   -0.009219575830176   0.003431068899373
1.000000000000000   -0.009216933381025   0.003881722308886
1.000000000000000   -0.009212518708264   0.004634617527830
1.000000000000000   -0.009207772728891   0.005444015046623
1.000000000000000   -0.009203002240926   0.006257592354597
1.000000000000000   -0.009199731785345   0.006815348388576
1.000000000000000   -0.009195102661192   0.007604816970148
1.000000000000000   -0.009190643295458   0.008365334300016
1.000000000000000   -0.009185136597468   0.009304467688429
1.000000000000000   -0.009182826339531   0.009698467934639
1.000000000000000   -0.009230458333356   -0.007271728158561
1.000000000000000   -0.009207281789232   -0.010263956007840
1.000000000000000   -0.009083456585992   0.003981155975080
1.000000000000000   -0.009088049212527   0.001946802196493
1.000000000000000   -0.009113133563546   -0.003281150358520
1.000000000000000   -0.009064463789083   0.004627900175619
1.000000000000000   -0.009086742253320   -0.001071187577509
1.000000000000000   -0.009070018558650   -0.000419584866762
1.000000000000000   -0.009094810785013   -0.006417881235365
1.000000000000000   -0.009111474034070   -0.009705092313881
1.000000000000000   -0.009087273192420   -0.007597199810218
1.000000000000000   -0.009077328438515   -0.008527945295529
1.000000000000000   -0.009038386120235   -0.003068506237607
1.000000000000000   -0.008961317043058   0.009358224315447
1.000000000000000   -0.009009584423015   0.000264003462025
1.000000000000000   -0.008957235263920   0.008433112894742
1.000000000000000   -0.008979234950899   0.004447250950872
1.000000000000000   -0.008980822920631   0.002533038633103
1.000000000000000   -0.008999128259618   -0.007621717353604
1.000000000000000   -0.008959579331489   -0.001834721647785
1.000000000000000   -0.008942550036178   0.000066850492730
1.000000000000000   -0.008977053985566   -0.006613271512364
1.000000000000000   -0.008965036512246   -0.005522689401872
1.000000000000000   -0.008904343955945   0.002201396876672
1.000000000000000   -0.008913673454381   -0.000639009002613
1.000000000000000   -0.008870375790310   0.005354555810019
1.000000000000000   -0.008839218230384   0.007426847413968
1.000000000000000   -0.008902117037766   -0.004075992480521
1.000000000000000   -0.008796274398874   0.009696249058159
1.000000000000000   -0.008843960575258   0.001151506139740
1.000000000000000   -0.008791148556887   0.009575617999858
1.000000000000000   -0.008794332914064   0.008755188994984
1.000000000000000   -0.008765950963869   0.007241880621243
1.000000000000000   -0.008809574984012   -0.002226271752669
1.000000000000000   -0.008743640561322   0.005176255951956
1.000000000000000   -0.008756532207026   0.000550723868049
1.000000000000000   -0.008741403095471   0.003223550190925
1.000000000000000   -0.008716709024504   0.006247542021401
1.000000000000000   -0.008764016854419   -0.003666051752198
1.000000000000000   -0.008766141640779   -0.008944523678920
1.000000000000000   -0.008703153603390   0.001295742481660
1.000000000000000   -0.008753450262501   -0.008166222395825
1.000000000000000   -0.008662285531361   0.003000537559275
1.000000000000000   -0.008642922685392   0.006012496813033
1.000000000000000   -0.008726242526183   -0.010266675592193
1.000000000000000   -0.008688593935222   -0.004719805451891
1.000000000000000   -0.008642336098263   -0.001537858792582
1.000000000000000   -0.008630065048007   -0.004636524310698
1.000000000000000   -0.008621804504598   -0.004468454713227
1.000000000000000   -0.008624180733986   -0.005076645161430
1.000000000000000   -0.008598540646566   -0.005924871363415
1.000000000000000   -0.008537272428529   -0.002893031346726
1.000000000000000   -0.008559779664475   -0.008974847218019
1.000000000000000   -0.008475383609651   0.002126215285872
1.000000000000000   -0.008484430732271   -0.003637167637624
1.000000000000000   -0.008406788835159   0.003791003213184
1.000000000000000   -0.008466879940844   -0.008267012891119
1.000000000000000   -0.008317779505257   0.008041249412430
1.000000000000000   -0.008322464999214   0.006998313240957
1.000000000000000   -0.008359029682056   -0.000781262766828
1.000000000000000   -0.008326514746929   0.001315940852659
1.000000000000000   -0.008364127984961   -0.007325343273635
1.000000000000000   -0.008281048325246   0.008044527474364
1.000000000000000   -0.008315555586662   -0.002452425399512
1.000000000000000   -0.008334854969099   -0.009709365199944
1.000000000000000   -0.008192453545042   0.005054734655771
1.000000000000000   -0.008271741499669   -0.010269111091116
1.000000000000000   -0.008191277029070   0.004260436133666
1.000000000000000   -0.008229925268906   -0.003347167461858
1.000000000000000   -0.008219551853370   -0.001429413707787
1.000000000000000   -0.008192877740969   0.001862697829657
1.000000000000000   -0.008180017287111   0.003912277457657
1.000000000000000   -0.008153919849480   0.006739299350524
1.000000000000000   -0.008188158209594   -0.000021951186190
1.000000000000000   -0.008187582230249   -0.004078545885871
1.000000000000000   -0.008157492384721   -0.000477853567053
1.000000000000000   -0.008202793303506   -0.009710053945879
1.000000000000000   -0.008183154479059   -0.006935390804248
1.000000000000000   -0.008147906260781   -0.001274433580513
1.000000000000000   -0.008151192229587   -0.002386579811306
1.000000000000000   -0.008103466803302   0.006726741330412
1.000000000000000   -0.008179521037883   -0.008605184125938
1.000000000000000   -0.008088889350342   0.008937959000472
1.000000000000000   -0.008116799052234   0.002879286538543
1.000000000000000   -0.008155251078206   -0.005920948592566
1.000000000000000   -0.008070141225137   0.009216146307897
1.000000000000000   -0.008153805459108   -0.007709597826693
1.000000000000000   -0.008054737967468   0.009182702726240
1.000000000000000   -0.008106437323017   -0.006886666415415
1.000000000000000   -0.008048074617001   0.002753904822693
1.000000000000000   -0.008037611776742   0.004612133202802
1.000000000000000   -0.008011148442385   0.007678291977316
1.000000000000000   -0.008030695217260   0.003798138998685
1.000000000000000   -0.008035348871718   0.000686569264381
1.000000000000000   -0.008060313375105   -0.005491730643425
1.000000000000000   -0.007983657674218   0.005772100991188
1.000000000000000   -0.008039954660898   -0.005754764363024
1.000000000000000   -0.008014693080494   -0.002041953890527
1.000000000000000   -0.007974292215327   0.000952404440801
1.000000000000000   -0.008012037065415   -0.006574700013701
1.000000000000000   -0.007928822643503   0.009691617039186
1.000000000000000   -0.007898224561357   0.008484581534475
1.000000000000000   -0.007911175242649   0.005401780564245
1.000000000000000   -0.007911844563436   0.000305618008974
1.000000000000000   -0.007869994611666   0.003369748335325
1.000000000000000   -0.007823539060775   0.006092444913751
1.000000000000000   -0.007857208375043   -0.010271218847274
1.000000000000000   -0.007813715104272   -0.003354911909182
1.000000000000000   -0.007782840723651   -0.008619830155610
1.000000000000000   -0.007758842865672   -0.007065448288134
1.000000000000000   -0.007696441952483   -0.002782755510502
1.000000000000000   -0.007670885925173   -0.001179582815973
1.000000000000000   -0.007676010872914   -0.004073656513771
1.000000000000000   -0.007677609892528   -0.004812746150011
1.000000000000000   -0.007619162492129   -0.002954682186792
1.000000000000000   -0.007595728777856   0.000179711295885
1.000000000000000   -0.007602671161372   -0.001985850905724
1.000000000000000   -0.007634857717144   -0.008996631044771
1.000000000000000   -0.007610467796619   -0.004771342124426
1.000000000000000   -0.007601570174222   -0.004753361743117
1.000000000000000   -0.007575541864581   -0.003911168523411
1.000000000000000   -0.007527127699212   0.004570767831229
1.000000000000000   -0.007588317413725   -0.008898272222346
1.000000000000000   -0.007508040846584   0.001164540642971
1.000000000000000   -0.007547495623083   -0.008019333309716
1.000000000000000   -0.007496559015572   0.002043902284907
1.000000000000000   -0.007506080768320   -0.009713505436064
1.000000000000000   -0.007405606482694   0.008406218098748
1.000000000000000   -0.007430129311113   -0.000502810449888
1.000000000000000   -0.007414471749737   -0.000101997095501
1.000000000000000   -0.007388416644542   0.005385757957895
1.000000000000000   -0.007367983519611   0.006124214973080
1.000000000000000   -0.007383717203791   0.002354251119755
1.000000000000000   -0.007380736830435   0.001500873231351
1.000000000000000   -0.007371084574061   0.002306978890512
1.000000000000000   -0.007413599104439   -0.007918523892985
1.000000000000000   -0.007382763161993   -0.001529729867457
1.000000000000000   -0.007381872966157   -0.005783971081385
1.000000000000000   -0.007292345782429   0.009261206999468
1.000000000000000   -0.007296715624109   0.007466422364585
1.000000000000000   -0.007283687930025   0.007035801145834
1.000000000000000   -0.007274119143910   0.005263396127873
1.000000000000000   -0.007286764481971   -0.000743833973201
1.000000000000000   -0.007246712711610   0.007123993615673
1.000000000000000   -0.007259882827081   0.003234047430760
1.000000000000000   -0.007302112320988   -0.007607764394149
1.000000000000000   -0.007299448092696   -0.010273883897350
1.000000000000000   -0.007203593799616   0.009688113245076
1.000000000000000   -0.007205184431906   0.005796125740145
1.000000000000000   -0.007208475201333   0.003977380294801
1.000000000000000   -0.007210693134485   0.002799465681670
1.000000000000000   -0.007156047783154   0.009581180775114
1.000000000000000   -0.007175490639537   0.004354079055855
1.000000000000000   -0.007139653622040   0.008829842229526
1.000000000000000   -0.007178808945264   -0.002196934508577
1.000000000000000   -0.007111007030229   0.007918935318389
1.000000000000000   -0.007186199464068   -0.008997404967946
1.000000000000000   -0.007109395840503   0.007905357285635
1.000000000000000   -0.007113393567332   0.006571290478576
1.000000000000000   -0.007153948937231   -0.006352123178860
1.000000000000000   -0.007133814327325   -0.005385042101814
1.000000000000000   -0.007117238508259   -0.006193742770778
1.000000000000000   -0.007054119959606   0.003508766043327
1.000000000000000   -0.007033911144685   0.003701197868855
1.000000000000000   -0.007087666230506   -0.009715431101353
1.000000000000000   -0.006965659847987   0.000689695645868
1.000000000000000   -0.006933734755510   0.005135527913719
1.000000000000000   -0.006946687198192   0.000686738499736
1.000000000000000   -0.006979218781056   -0.006721448972356
1.000000000000000   -0.006958287056614   -0.005368223381679
1.000000000000000   -0.006951322506698   -0.009248021112299
1.000000000000000   -0.006933495772604   -0.007404275008111
1.000000000000000   -0.006895144940324   -0.000818185642145
1.000000000000000   -0.006900692055003   -0.003788296090057
1.000000000000000   -0.006839637721815   -0.001615734118106
1.000000000000000   -0.006794025038999   0.007123624100940
1.000000000000000   -0.006835021773644   -0.004610131428947
1.000000000000000   -0.006807391035816   -0.002178201890259
1.000000000000000   -0.006791955903619   0.000033774451457
1.000000000000000   -0.006794384134171   -0.003020266641500
1.000000000000000   -0.006786396513384   -0.006049434697260
1.000000000000000   -0.006761230917080   -0.000696058297777
1.000000000000000   -0.006717754262038   0.006363318241421
1.000000000000000   -0.006723417353424   0.002171537193912
1.000000000000000   -0.006736944481792   -0.001294408462979
1.000000000000000   -0.006727556646496   -0.002055493342787
1.000000000000000   -0.006729730302399   -0.002884795395117
1.000000000000000   -0.006722130800530   -0.003350463445549
1.000000000000000   -0.006706023101253   0.000146770170190
1.000000000000000   -0.006714659720991   -0.004077533304050
1.000000000000000   -0.006672915632160   0.002889029965511
1.000000000000000   -0.006660196317536   0.004685496422126
1.000000000000000   -0.006635821517634   0.008844444888050
1.000000000000000   -0.006705227580587   -0.008337973986352
1.000000000000000   -0.006692989836328   -0.006973336463949
1.000000000000000   -0.006681624435894   -0.008333807471090
1.000000000000000   -0.006670449654194   -0.006968722662518
1.000000000000000   -0.006569820095942   0.005841152713015
1.000000000000000   -0.006553403003300   0.005709135096599
1.000000000000000   -0.006607835835206   -0.010276916102660
1.000000000000000   -0.006577788673865   -0.004922904194487
1.000000000000000   -0.006577219133477   -0.005754050853747
1.000000000000000   -0.006484830473807   0.009501795213626
1.000000000000000   -0.006483157249768   0.008461701521569
1.000000000000000   -0.006477872776440   0.004653520552518
1.000000000000000   -0.006471968297499   0.006045855819056
1.000000000000000   -0.006468106607825   0.003169794268565
1.000000000000000   -0.006468114565775   0.001438756218914
1.000000000000000   -0.006445893597061   0.001536066963266
1.000000000000000   -0.006402186417474   0.009684632028471
1.000000000000000   -0.006426321889483   0.002407022039441
1.000000000000000   -0.006371351099186   0.009210896960987
1.000000000000000   -0.006428015487984   -0.007926978759066
1.000000000000000   -0.006347614481680   0.006894365348461
1.000000000000000   -0.006369569870167   0.001105358680749
1.000000000000000   -0.006339234788382   0.003901454172083
1.000000000000000   -0.006319794637002   -0.009239204349276
1.000000000000000   -0.006291992603193   -0.005709951884249
1.000000000000000   -0.006278486832825   -0.006500523220941
1.000000000000000   -0.006212974758733   -0.006468418666162
1.000000000000000   -0.006126301266727   0.007693026145941
1.000000000000000   -0.006152744599841   -0.000552233999519
1.000000000000000   -0.006121917980148   0.006143853998489
1.000000000000000   -0.006162938498969   -0.008774437226756
1.000000000000000   -0.006097164208546   0.003246568505573
1.000000000000000   -0.006123343842256   -0.009719448682737
1.000000000000000   -0.006115868033404   -0.008887372544559
1.000000000000000   -0.006036325126283   0.007703292967869
1.000000000000000   -0.006082058795322   -0.005943405154904
1.000000000000000   -0.006074977770352   -0.005001886647331
1.000000000000000   -0.005988888142624   0.003633190276233
1.000000000000000   -0.005959232454348   0.004912173985583
1.000000000000000   -0.005927568221397   0.005012670865439
1.000000000000000   -0.005934974551765   0.000865927988088
1.000000000000000   -0.005949691249388   -0.004938612004743
1.000000000000000   -0.005922128618512   0.000078373137167
1.000000000000000   -0.005912916708934   0.000085353915511
1.000000000000000   -0.005926413933782   -0.004217841438949
1.000000000000000   -0.005860777927746   0.008187684422572
1.000000000000000   -0.005874570668312   0.003687983335556
1.000000000000000   -0.005856631534755   0.008174441556356
1.000000000000000   -0.005849472081100   0.006927716941600
1.000000000000000   -0.005863982971433   0.002528730345892
1.000000000000000   -0.005866128786761   0.001924950665178
1.000000000000000   -0.005874479190994   -0.001993471848124
1.000000000000000   -0.005884989495975   -0.010279762919001
1.000000000000000   -0.005874509905267   -0.007755825028427
1.000000000000000   -0.005844240495938   -0.002736311275703
1.000000000000000   -0.005817308258950   0.002652129307381
1.000000000000000   -0.005796688986549   0.007190924750009
1.000000000000000   -0.005818503098804   0.000557022263871
1.000000000000000   -0.005829395664668   -0.003534061972616
1.000000000000000   -0.005807541304716   0.002351951877470
1.000000000000000   -0.005786092315184   0.006747874392884
1.000000000000000   -0.005806438265846   -0.001266531100027
1.000000000000000   -0.005828153925246   -0.007884247566391
1.000000000000000   -0.005757298458860   0.009025444060149
1.000000000000000   -0.005791574553746   -0.002198105122655
1.000000000000000   -0.005782225245457   -0.001141822828095
1.000000000000000   -0.005784820798960   -0.004530307056064
1.000000000000000   -0.005778640347937   -0.003641514252459
1.000000000000000   -0.005729827028699   0.009682027747909
1.000000000000000   -0.005783517437034   -0.007478738444809
1.000000000000000   -0.005780565991912   -0.007485627260047
1.000000000000000   -0.005698040453940   0.008820536742365
1.000000000000000   -0.005699507415443   0.005254935191913
1.000000000000000   -0.005701295334851   -0.001616539235676
1.000000000000000   -0.005685172591944   -0.002967236517873
1.000000000000000   -0.005649318622564   0.005692957954029
1.000000000000000   -0.005649904108782   0.000570236545784
1.000000000000000   -0.005616404921336   0.004505697288774
1.000000000000000   -0.005636963013455   -0.006701554540915
1.000000000000000   -0.005642483719576   -0.009721232896385
1.000000000000000   -0.005569543532315   0.009321087832282
1.000000000000000   -0.005578082498673   -0.005277330561270
1.000000000000000   -0.005537218550342   -0.002959116599845
1.000000000000000   -0.005439681997861   -0.000159357076210
1.000000000000000   -0.005410398514495   0.006559003456114
1.000000000000000   -0.005420247506027   0.001428201856764
1.000000000000000   -0.005435332112492   -0.010281367614673
1.000000000000000   -0.005329850918415   -0.000823078400904
1.000000000000000   -0.005283618642017   0.003607968561848
1.000000000000000   -0.005273456174286   -0.000411089144149
1.000000000000000   -0.005268026862188   -0.002330399537064
1.000000000000000   -0.005227056018115   0.002852762335413
1.000000000000000   -0.005261526578893   -0.009620431559253
1.000000000000000   -0.005215417006650   -0.003685403069395
1.000000000000000   -0.005231366452273   -0.008863900650314
1.000000000000000   -0.005224517065963   -0.007479355906317
1.000000000000000   -0.005218371656408   -0.005885284161449
1.000000000000000   -0.005210020367208   -0.004473060631441
1.000000000000000   -0.005224346306190   -0.009722665833320
1.000000000000000   -0.005182136710279   0.001466275672013
1.000000000000000   -0.005200002010704   -0.005835256346520
1.000000000000000   -0.005207860435532   -0.008514096213387
1.000000000000000   -0.005190113267774   -0.008787159273385
1.000000000000000   -0.005143310970877   0.002049897938520
1.000000000000000   -0.005122442253188   0.008040387215971
1.000000000000000   -0.005109602075562   0.009473651463384
1.000000000000000   -0.005154430360426   -0.006358942024687
1.000000000000000   -0.005153131914207   -0.006356416939174
1.000000000000000   -0.005117808158919   0.003169868023192
1.000000000000000   -0.005084221938376   0.008736567101429
1.000000000000000   -0.005136237201654   -0.009355801596512
1.000000000000000   -0.005096405811969   -0.001653549536449
1.000000000000000   -0.005060806116616   0.006100920856112
1.000000000000000   -0.005028947851895   0.009679620290042
1.000000000000000   -0.005026966294534   0.006093599536456
1.000000000000000   -0.004999714544780   0.005181764831865
1.000000000000000   -0.004999976334690   0.004388012948595
1.000000000000000   -0.005002758519138   0.001739104243849
1.000000000000000   -0.005004179295632   -0.002524564714161
1.000000000000000   -0.005009378479647   -0.004872477136689
1.000000000000000   -0.004967027530490   0.007426608399373
1.000000000000000   -0.004977128294039   -0.001746758975178
1.000000000000000   -0.004925599577825   0.007508910231341
1.000000000000000   -0.004959352791752   -0.005673452271870
1.000000000000000   -0.004906984381590   0.008291297279089
1.000000000000000   -0.004924476667969   0.002592117065965
1.000000000000000   -0.004908008304874   0.004018200661503
1.000000000000000   -0.004936154481790   -0.007122809836495
1.000000000000000   -0.004918579901029   -0.003247815918175
1.000000000000000   -0.004880978341783   0.000231783686312
1.000000000000000   -0.004891271044304   -0.004181907314805
1.000000000000000   -0.004859779860925   0.004588043577107
1.000000000000000   -0.004836282116257   0.007029793366242
1.000000000000000   -0.004856135137937   -0.001039780373686
1.000000000000000   -0.004859679076452   -0.008752229670774
1.000000000000000   -0.004796396437603   0.009087084220942
1.000000000000000   -0.004809100089199   -0.007918395257583
1.000000000000000   -0.004767709323579   0.005446443044716
1.000000000000000   -0.004786408237227   -0.007915221986586
1.000000000000000   -0.004752768085800   0.000865097861328
1.000000000000000   -0.004720132976178   0.002564326274833
1.000000000000000   -0.004724894424786   -0.005141114120334
1.000000000000000   -0.004704416900128   -0.003169951354268
1.000000000000000   -0.004678557142440   0.005436438246962
1.000000000000000   -0.004644160634680   -0.004166634571934
1.000000000000000   -0.004605876238099   -0.002554114479374
1.000000000000000   -0.004537263413553   0.009678118605857
1.000000000000000   -0.004566295422220   -0.002962032603891
1.000000000000000   -0.004465276679555   0.007611311634696
1.000000000000000   -0.004459015289917   0.009037253433462
1.000000000000000   -0.004470898199339   -0.001975621604603
1.000000000000000   -0.004465701567562   -0.006499622240046
1.000000000000000   -0.004469283027039   -0.009491007831206
1.000000000000000   -0.004440203483413   0.000700013256126
1.000000000000000   -0.004446296767382   -0.003837536186417
1.000000000000000   -0.004434352736619   0.000352037154821
1.000000000000000   -0.004441736849655   -0.007192606153678
1.000000000000000   -0.004408681301359   -0.004986744305456
1.000000000000000   -0.004392938086109   0.000563886604261
1.000000000000000   -0.004399813715560   -0.002207900523972
1.000000000000000   -0.004372875946860   0.006440012774537
1.000000000000000   -0.004391172088751   -0.000344331162734
1.000000000000000   -0.004375376025491   0.004689726558813
1.000000000000000   -0.004376501114425   0.003290016002562
1.000000000000000   -0.004361900991211   0.003757609158384
1.000000000000000   -0.004398981076766   -0.010284580553434
1.000000000000000   -0.004361849129499   -0.000901131736915
1.000000000000000   -0.004353651723820   0.001897959263642
1.000000000000000   -0.004334804975016   0.008380404486074
1.000000000000000   -0.004331365036516   0.006596845009015
1.000000000000000   -0.004328054728676   0.006599689866042
1.000000000000000   -0.004324032846010   0.002900906628053
1.000000000000000   -0.004318365958569   0.001887786427655
1.000000000000000   -0.004307909194600   -0.000145499185343
1.000000000000000   -0.004326236820300   -0.007449749253890
1.000000000000000   -0.004292062790697   0.004936138790976
1.000000000000000   -0.004302844098273   -0.006847067856343
1.000000000000000   -0.004258404234809   0.008585709481744
1.000000000000000   -0.004257630225743   0.008198197126400
1.000000000000000   -0.004254366598500   0.009354001551122
1.000000000000000   -0.004269373274909   -0.001006850301895
1.000000000000000   -0.004264956541744   -0.004597238296602
1.000000000000000   -0.004232266185582   0.003589579483495
1.000000000000000   -0.004211701512725   -0.001396511485304
1.000000000000000   -0.004170734165956   0.001248836511967
1.000000000000000   -0.004142256893574   0.004481077067498
1.000000000000000   -0.004169406882741   -0.008341380740901
1.000000000000000   -0.004168372973715   -0.009063881770845
1.000000000000000   -0.004063634159823   0.001257312733713
1.000000000000000   -0.004032617153612   0.007293008132623
1.000000000000000   -0.004023093387519   0.007209667850745
1.000000000000000   -0.004053764821402   -0.008353473806803
1.000000000000000   -0.004010892340802   0.005703335234710
1.000000000000000   -0.003995459301195   0.005877452749043
1.000000000000000   -0.004011007896599   -0.002272093897482
1.000000000000000   -0.003996666730770   -0.003724548356240
1.000000000000000   -0.003941220315138   0.002630180378451
1.000000000000000   -0.003922088848478   0.008026031592253
1.000000000000000   -0.003894737176651   0.005209030109989
1.000000000000000   -0.003898475457352   0.003607398892687
1.000000000000000   -0.003897803311139   0.002145678212526
1.000000000000000   -0.003910221904675   -0.003195061577052
1.000000000000000   -0.003874045894112   0.009523535117866
1.000000000000000   -0.003849370181530   0.009676276729733
1.000000000000000   -0.003848698071284   0.005422258195164
1.000000000000000   -0.003854498193925   0.002346722607576
1.000000000000000   -0.003867036251906   -0.006832031171014
1.000000000000000   -0.003827337782446   0.008694496284680
1.000000000000000   -0.003870203838287   -0.008914515133149
1.000000000000000   -0.003859593966296   -0.005891561518505
1.000000000000000   -0.003855544747504   -0.004519553737276
1.000000000000000   -0.003857863205455   -0.008820416587929
1.000000000000000   -0.003826200101331   -0.003316583929839
1.000000000000000   -0.003801000776052   0.004479980721717
1.000000000000000   -0.003793494480519   0.007581903766152
1.000000000000000   -0.003818222810799   -0.005584175031322
1.000000000000000   -0.003748440901151   -0.005856219354104
1.000000000000000   -0.003725018898735   0.003845518826129
1.000000000000000   -0.003733966338333   -0.002692688201716
1.000000000000000   -0.003741331883750   -0.005859780208561
1.000000000000000   -0.003692335452684   -0.005949977732066
1.000000000000000   -0.003685897239925   -0.007687892367579
1.000000000000000   -0.003664334544326   0.000585137286345
1.000000000000000   -0.003674118048271   -0.004155044475560
1.000000000000000   -0.003670542551706   -0.007719994302187
1.000000000000000   -0.003645095289667   -0.001566974197018
1.000000000000000   -0.003584088310547   0.009224226750698
1.000000000000000   -0.003568113345836   0.004649805235603
1.000000000000000   -0.003569065700041   -0.000899116011801
1.000000000000000   -0.003562892461657   -0.004832020538536
1.000000000000000   -0.003570511385807   -0.009727252797241
1.000000000000000   -0.003557916295007   -0.007122258064363
1.000000000000000   -0.003537958462670   -0.000222344638196
1.000000000000000   -0.003475660928654   0.006582874943813
1.000000000000000   -0.003500834048194   -0.009419230163378
1.000000000000000   -0.003467070023818   0.003212467019779
1.000000000000000   -0.003471398508004   -0.002000213880836
1.000000000000000   -0.003450580006205   -0.000333016271713
1.000000000000000   -0.003408022673211   0.006125621015176
1.000000000000000   -0.003398716380534   0.001808771799964
1.000000000000000   -0.003386702434230   0.001764310961923
1.000000000000000   -0.003361547306320   -0.004057750651183
1.000000000000000   -0.003345300692518   0.000264957780064
1.000000000000000   -0.003337382765345   0.001110352206097
1.000000000000000   -0.003331893514892   0.001090267556801
1.000000000000000   -0.003345179363766   -0.005667747593738
1.000000000000000   -0.003302168154691   0.008321021499862
1.000000000000000   -0.003297498654160   0.008274993730009
1.000000000000000   -0.003299768429936   -0.001145292060692
1.000000000000000   -0.003277595049394   0.005407581714031
1.000000000000000   -0.003238577231036   0.006930075930311
1.000000000000000   -0.003228549438209   0.001493881947049
1.000000000000000   -0.003217043731213   0.006032168648908
1.000000000000000   -0.003126425557450   0.007663412764171
1.000000000000000   -0.003112601026474   -0.001167206354665
1.000000000000000   -0.003110908886381   -0.007929382289908
1.000000000000000   -0.003084286472777   0.004630780486723
1.000000000000000   -0.003089197550644   -0.002093938048369
1.000000000000000   -0.003102760160865   -0.010287645986038
1.000000000000000   -0.003066504731682   0.004081054419731
1.000000000000000   -0.003059626725097   0.005879831022418
1.000000000000000   -0.003052968039629   0.007895567804152
1.000000000000000   -0.003050143278123   0.000340917379272
1.000000000000000   -0.003039658593203   0.003138723875908
1.000000000000000   -0.003022865825894   0.009674463326366
1.000000000000000   -0.003013076240866   0.002648780689652
1.000000000000000   -0.003001310669271   0.004942136032781
1.000000000000000   -0.003007054042263   -0.004829897850579
1.000000000000000   -0.002996709748719   -0.002704147492820
1.000000000000000   -0.002978130265988   0.007052394768256
1.000000000000000   -0.003000785869506   -0.006575098847196
1.000000000000000   -0.002978154555593   -0.000418057517646
1.000000000000000   -0.002972853410576   -0.003375044665060
1.000000000000000   -0.002966921429535   -0.003431247806667
1.000000000000000   -0.002949280701377   0.002970872671862
1.000000000000000   -0.002945911749288   0.004396836370190
1.000000000000000   -0.002954084895333   -0.006706078937981
1.000000000000000   -0.002936367250354   -0.001618793363926
1.000000000000000   -0.002912361704994   0.007019337488287
1.000000000000000   -0.002918197560600   0.003440712402654
1.000000000000000   -0.002936271100211   -0.008435131451861
1.000000000000000   -0.002918265049760   -0.003267400456206
1.000000000000000   -0.002917465798598   -0.005098166678321
1.000000000000000   -0.002890007151421   0.009150308262423
1.000000000000000   -0.002902369781488   0.000788849204851
1.000000000000000   -0.002899607647898   0.002286174689307
1.000000000000000   -0.002899859235150   -0.002374614712178
1.000000000000000   -0.002902520658827   -0.004620271203190
1.000000000000000   -0.002906317132728   -0.008289496692651
1.000000000000000   -0.002887145877097   -0.000960443094776
1.000000000000000   -0.002895278748256   -0.006741002031648
1.000000000000000   -0.002865937861702   0.009091257432900
1.000000000000000   -0.002865516996772   -0.007618498024595
1.000000000000000   -0.002831459585932   0.009362544683853
1.000000000000000   -0.002803662239512   0.006809777110052
1.000000000000000   -0.002823316015428   -0.009176085721113
1.000000000000000   -0.002749362799994   -0.009053418920382
1.000000000000000   -0.002642369873067   -0.009050143101097
1.000000000000000   -0.002632820172169   -0.009729087173036
1.000000000000000   -0.002590231453490   -0.005853045402937
1.000000000000000   -0.002566888215338   -0.005303495698456
1.000000000000000   -0.002556645813768   -0.000084177398181
1.000000000000000   -0.002506958590754   -0.004386478562050
1.000000000000000   -0.002475177324778   0.009673501951890
1.000000000000000   -0.002500629238696   -0.006789154360068
1.000000000000000   -0.002441516497643   0.004321529291938
1.000000000000000   -0.002456764500487   -0.007530931087281
1.000000000000000   -0.002435140022160   -0.008206680018932
1.000000000000000   -0.002418472771862   0.001543948304296
1.000000000000000   -0.002393977752958   0.008070558988114
1.000000000000000   -0.002399967585945   -0.004129240954486
1.000000000000000   -0.002379084305680   0.002912025775475
1.000000000000000   -0.002373343331194   -0.000078147777413
1.000000000000000   -0.002348797569238   0.000956534426948
1.000000000000000   -0.002312651660308   -0.005699726703208
1.000000000000000   -0.002314774143269   -0.010288991754185
1.000000000000000   -0.002288628584301   0.006229420688701
1.000000000000000   -0.002266784680600   0.005411976642287
1.000000000000000   -0.002264016925177   0.005909721273267
1.000000000000000   -0.002254056713121   0.001887773276472
1.000000000000000   -0.002235721642115   0.009673141805078
1.000000000000000   -0.002222781052307   0.006056378514839
1.000000000000000   -0.002233118149193   -0.002243650906664
1.000000000000000   -0.002209242125146   0.001911697463630
1.000000000000000   -0.002195284982932   0.007315647925984
1.000000000000000   -0.002210789321325   -0.007181413354436
1.000000000000000   -0.002183439985589   0.005659276081061
1.000000000000000   -0.002192038765569   -0.004795682194370
1.000000000000000   -0.002173953802157   -0.001000838705808
1.000000000000000   -0.002162171313408   0.003723569633453
1.000000000000000   -0.002169226639861   -0.008020544003966
1.000000000000000   -0.002132397673414   0.008606109490584
1.000000000000000   -0.002131582183050   0.007581645622756
1.000000000000000   -0.002142167343238   -0.001471916679052
1.000000000000000   -0.002128077394438   0.008594000601100
1.000000000000000   -0.002116496859388   0.002151234765934
1.000000000000000   -0.002120715640392   -0.004047605049319
1.000000000000000   -0.002116772943181   -0.008687955677636
1.000000000000000   -0.002107586675958   -0.003150227698797
1.000000000000000   -0.002087681161800   0.004864486371538
1.000000000000000   -0.002086965899198   0.003942348401701
1.000000000000000   -0.002090010995972   0.000713663390785
1.000000000000000   -0.002083002553827   -0.000634325713239
1.000000000000000   -0.002081331965389   -0.001237037529774
1.000000000000000   -0.002074709915046   0.000357706087316
1.000000000000000   -0.002070508352778   -0.005761879213954
1.000000000000000   -0.002043755575057   0.008766128104386
1.000000000000000   -0.002043757338510   -0.001946146838400
1.000000000000000   -0.002005769492851   -0.002649991794083
1.000000000000000   -0.001988116245655   0.003159025273497
1.000000000000000   -0.001981171229595   0.007071302660313
1.000000000000000   -0.001995095583438   -0.009730017898721
1.000000000000000   -0.001966280987757   -0.006292160156249
1.000000000000000   -0.001916236551363   0.000290069818918
1.000000000000000   -0.001885806166952   -0.001964252747585
1.000000000000000   -0.001892880061667   -0.009356569592483
1.000000000000000   -0.001863019727227   -0.004903368882320
1.000000000000000   -0.001821520652839   -0.003406197967547
1.000000000000000   -0.001777854136752   -0.005538764468441
1.000000000000000   -0.001755894408808   -0.009248122520736
1.000000000000000   -0.001747920758360   -0.007308858895821
1.000000000000000   -0.001740113308492   -0.000546349309020
1.000000000000000   -0.001740570009167   -0.007966114569860
1.000000000000000   -0.001728728065684   0.002493744605569
1.000000000000000   -0.001709601837135   0.006298010039808
1.000000000000000   -0.001678942256995   0.005508257524342
1.000000000000000   -0.001662243104396   0.007008591182162
1.000000000000000   -0.001643556765885   0.000924267350530
1.000000000000000   -0.001641742891420   -0.004303861841749
1.000000000000000   -0.001625805934517   0.004689086661891
1.000000000000000   -0.001619868581617   -0.008736306006442
1.000000000000000   -0.001608462371802   -0.002656720435851
1.000000000000000   -0.001609293130789   -0.007503220829355
1.000000000000000   -0.001542921709241   0.009672306020773
1.000000000000000   -0.001553270370368   -0.006553349313654
1.000000000000000   -0.001554483486584   -0.008667227569856
1.000000000000000   -0.001544514626781   -0.003396329346749
1.000000000000000   -0.001548407873583   -0.010289925075758
1.000000000000000   -0.001545006644197   -0.008308403869050
1.000000000000000   -0.001519344774886   0.006609883782095
1.000000000000000   -0.001522664390106   -0.004539936739372
1.000000000000000   -0.001504116835569   0.002971830567603
1.000000000000000   -0.001494869443653   0.009518222739618
1.000000000000000   -0.001492666244758   -0.006542237597226
1.000000000000000   -0.001477364713449   0.008339120407629
1.000000000000000   -0.001474885175203   0.001655144816582
1.000000000000000   -0.001446113231861   0.002988439884343
1.000000000000000   -0.001431783120336   0.004987686945491
1.000000000000000   -0.001425235375584   0.004119916824660
1.000000000000000   -0.001425995023660   -0.005542990408222
1.000000000000000   -0.001412577791275   0.001551231364042
1.000000000000000   -0.001410923990958   -0.001247940023875
1.000000000000000   -0.001400349443265   -0.002207286531021
1.000000000000000   -0.001387313561950   0.004104846849902
1.000000000000000   -0.001371177539955   0.007740341553397
1.000000000000000   -0.001309207910321   0.007891639150636
1.000000000000000   -0.001316322540404   -0.003792629271325
1.000000000000000   -0.001300259710696   0.009375192157091
1.000000000000000   -0.001292246280452   0.007362863672389
1.000000000000000   -0.001268448789759   -0.000132027464600
1.000000000000000   -0.001256146520692   -0.001579825673764
1.000000000000000   -0.001247821661587   0.003812469950449
1.000000000000000   -0.001242719407909   0.002071048156055
1.000000000000000   -0.001199944939229   -0.000979825489230
1.000000000000000   -0.001187719618780   -0.003031017794904
1.000000000000000   -0.001153619708296   -0.005950152310532
1.000000000000000   -0.001138241060255   0.002856350862450
1.000000000000000   -0.001100627994279   -0.009730891130693
1.000000000000000   -0.001096334033839   -0.009615265826784
1.000000000000000   -0.001050099021092   -0.002992522735671
1.000000000000000   -0.001026405896657   0.008767224075273
1.000000000000000   -0.001023892543614   0.005038185690868
1.000000000000000   -0.001015326035227   0.008765836166958
1.000000000000000   -0.001005469880222   0.006656706340955
1.000000000000000   -0.000992140714234   -0.000877183762986
1.000000000000000   -0.000991393173387   -0.000113748818054
1.000000000000000   -0.000967318644406   0.005920093329679
1.000000000000000   -0.000943153674087   -0.005137721846948
1.000000000000000   -0.000923472074591   0.007915629409342
1.000000000000000   -0.000926302434301   -0.004695695778110
1.000000000000000   -0.000922274486728   0.000595973464844
1.000000000000000   -0.000920003145350   0.000578191652214
1.000000000000000   -0.000911491729055   0.005738237741557
1.000000000000000   -0.000897345974980   -0.000270181149094
1.000000000000000   -0.000884706929736   0.004437143979460
1.000000000000000   -0.000879043508256   0.005773870910349
1.000000000000000   -0.000872049224813   0.007067670595315
1.000000000000000   -0.000869705323724   0.005774086604417
1.000000000000000   -0.000851557963251   -0.004863797229566
1.000000000000000   -0.000846624868490   0.000318810994085
1.000000000000000   -0.000836017077501   -0.001897571671239
1.000000000000000   -0.000833192643095   -0.007379966345328
1.000000000000000   -0.000824375055191   -0.006771367442700
1.000000000000000   -0.000822775846609   -0.008934375048326
1.000000000000000   -0.000788246146853   0.006900220603384
1.000000000000000   -0.000785256253343   0.002397709002505
1.000000000000000   -0.000781889394263   -0.002133002295610
1.000000000000000   -0.000780963312724   -0.002130093237456
1.000000000000000   -0.000782889148483   -0.008082928564746
1.000000000000000   -0.000771910544188   0.009464913239514
1.000000000000000   -0.000755142279159   -0.006051174796149
1.000000000000000   -0.000735780669895   0.004681674266984
1.000000000000000   -0.000737744419520   -0.009188223637082
1.000000000000000   -0.000713545691553   -0.002482862351114
1.000000000000000   -0.000698926148842   -0.007124976014715
1.000000000000000   -0.000695066926822   -0.007759943552759
1.000000000000000   -0.000669178750847   0.003615976603162
1.000000000000000   -0.000659280804619   0.001326522267984
1.000000000000000   -0.000654802660791   0.002354470550136
1.000000000000000   -0.000646133928920   -0.003985223840673
1.000000000000000   -0.000640523812236   -0.006346773212929
1.000000000000000   -0.000629185117225   0.001180766178898
1.000000000000000   -0.000625620324075   0.009671670938249
1.000000000000000   -0.000599522954614   0.007588507798836
1.000000000000000   -0.000599365932751   -0.003948755167607
1.000000000000000   -0.000583186489823   0.003344676926195
1.000000000000000   -0.000573168019944   -0.008505740029713
1.000000000000000   -0.000569495918170   -0.001217568088162
1.000000000000000   -0.000560918772990   -0.005714614748377
1.000000000000000   -0.000549898611561   -0.010290585572309
1.000000000000000   -0.000540998605441   -0.003628589910828
1.000000000000000   -0.000530425903234   0.009138605722377
1.000000000000000   -0.000493093908171   0.001629006205317
1.000000000000000   -0.000436753191449   -0.002626646901359
1.000000000000000   -0.000421251361699   0.008358368615270
1.000000000000000   -0.000408666805395   0.006807573903489
1.000000000000000   -0.000395242507610   0.003913027640553
1.000000000000000   -0.000333990566150   0.005413059623804
1.000000000000000   -0.000307050478599   0.000314352798301
1.000000000000000   -0.000249510710444   0.003158704990889
1.000000000000000   -0.000242762115282   -0.004087227414222
1.000000000000000   -0.000234496892585   -0.007092949403954
1.000000000000000   -0.000226861988846   -0.000444287463102
1.000000000000000   -0.000221865915462   -0.006313656017237
1.000000000000000   -0.000180487378980   0.009671556378258
1.000000000000000   -0.000180464081571   -0.004969199472187
1.000000000000000   -0.000165107170992   0.008357710607915
1.000000000000000   -0.000158458496733   0.006377158198613
1.000000000000000   -0.000147067322891   0.007643390569313
1.000000000000000   -0.000104416765993   0.009110577237641
1.000000000000000   -0.000088888565652   0.008248720255084
1.000000000000000   -0.000056355386029   0.004852975920113
1.000000000000000   -0.000052520109208   -0.003243311030002
1.000000000000000   -0.000025738207607   -0.001067010653792
1.000000000000000   -0.000016782524728   0.009418338905136
1.000000000000000   -0.000016084763294   0.004836609951196
1.000000000000000   -0.000014372436168   0.008840415282813
1.000000000000000   -0.000005389352736   0.000893283106651
1.000000000000000   0.000001218531440   -0.009731273148185
1.000000000000000   0.000001765471686   0.002696789157036
1.000000000000000   0.000004831652757   -0.004494900879815
1.000000000000000   0.000008901140136   -0.000962097870565
1.000000000000000   0.000019331558459   -0.009479819783934
1.000000000000000   0.000022487006227   0.007356448971387
1.000000000000000   0.000029403476047   -0.005625339228407
1.000000000000000   0.000034533547185   -0.009557886307376
1.000000000000000   0.000045351321430   0.000815824150397
1.000000000000000   0.000046216452656   -0.000028897799366
1.000000000000000   0.000055164202404   0.002687089716750
1.000000000000000   0.000065700380353   -0.006762153748772
1.000000000000000   0.000104878323805   -0.005903470834956
1.000000000000000   0.000127074052541   0.006275453019171
1.000000000000000   0.000147574381005   0.004050556198802
1.000000000000000   0.000151778637807   -0.005317850562574
1.000000000000000   0.000161743285394   -0.007934530906950
1.000000000000000   0.000166634131583   -0.008460139076098
1.000000000000000   0.000168911135461   -0.003249287447381
1.000000000000000   0.000168793530126   0.003948710429191
1.000000000000000   0.000171207483781   -0.001833874616903
1.000000000000000   0.000173989771783   0.004115681952065
1.000000000000000   0.000183050037944   0.006006089737495
1.000000000000000   0.000210114187101   -0.009151162929399
1.000000000000000   0.000228560663549   0.001714487771946
1.000000000000000   0.000236978458713   -0.007592529580665
1.000000000000000   0.000251644772254   -0.001586838955926
1.000000000000000   0.000282448164184   -0.008281103960198
1.000000000000000   0.000299280064465   -0.008281025063107
1.000000000000000   0.000310744122892   0.001998816978801
1.000000000000000   0.000326612351868   0.001558447940664
1.000000000000000   0.000358346035101   -0.007507937720122
1.000000000000000   0.000379995175379   -0.010290635378685
1.000000000000000   0.000394415584739   -0.003859374080065
1.000000000000000   0.000427675551999   -0.002409506978425
1.000000000000000   0.000482382346792   0.005128648601253
1.000000000000000   0.000504399336915   0.007267840526783
1.000000000000000   0.000534496715736   0.005561536967710
1.000000000000000   0.000549433795062   -0.005195064036413
1.000000000000000   0.000563404931494   -0.002925415731357
1.000000000000000   0.000560815048837   0.008129687930646
1.000000000000000   0.000571923071803   0.002938613402656
1.000000000000000   0.000576796698519   0.000571977999527
1.000000000000000   0.000586500329719   0.002040657476839
1.000000000000000   0.000600984600181   0.005386039611952
1.000000000000000   0.000604192370368   -0.000662113227153
1.000000000000000   0.000618820615601   -0.004000898970481
1.000000000000000   0.000624202448225   -0.004411398989036
1.000000000000000   0.000630912317214   0.000118668774634
1.000000000000000   0.000647392957218   0.007458212391392
1.000000000000000   0.000686489771446   -0.006338952618440
1.000000000000000   0.000687684623443   -0.004103273331962
1.000000000000000   0.000690151581317   -0.002627695631141
1.000000000000000   0.000695534075588   0.003168615669382
1.000000000000000   0.000711001319252   0.001364004471053
1.000000000000000   0.000718922769380   -0.002619407389499
1.000000000000000   0.000715768503016   0.009654134247589
1.000000000000000   0.000723541316345   0.009671713116638
1.000000000000000   0.000727489437044   0.006654755360287
1.000000000000000   0.000733660687276   -0.006643965309602
1.000000000000000   0.000728885677303   0.006654272111009
1.000000000000000   0.000732518955488   0.000014143535566
1.000000000000000   0.000732673704165   0.004175520977790
1.000000000000000   0.000736255278114   -0.001520442606699
1.000000000000000   0.000751129495924   -0.006686104632964
1.000000000000000   0.000758503747555   -0.009731091714891
1.000000000000000   0.000762490502394   -0.010290497617666
1.000000000000000   0.000765939393416   -0.009731088140249
1.000000000000000   0.000765584869658   -0.006474899566687
1.000000000000000   0.000790991288701   -0.004901171399349
1.000000000000000   0.000788886038429   -0.000233387194061
1.000000000000000   0.000817069399357   -0.005593859973097
1.000000000000000   0.000831212432656   -0.009119564137808
1.000000000000000   0.000830675760210   0.000909040331737
1.000000000000000   0.000856630202258   0.002604959962986
1.000000000000000   0.000878766294017   -0.003410457432121
1.000000000000000   0.000913794981814   0.003267374603374
1.000000000000000   0.000925167708086   0.008877142599393
1.000000000000000   0.000930462380753   0.008886325827064
1.000000000000000   0.000935944278810   0.008396765040689
1.000000000000000   0.000954355522256   0.006233296148339
1.000000000000000   0.001005808461573   -0.008692569807707
1.000000000000000   0.001011371803346   -0.006343027288572
1.000000000000000   0.001041275083686   -0.001227157367623
1.000000000000000   0.001054820394245   0.003899542721360
1.000000000000000   0.001065819082083   -0.010290322789034
1.000000000000000   0.001063661960154   0.004660278717371
1.000000000000000   0.001092038393954   -0.002118096533226
1.000000000000000   0.001085949221691   0.006756738870147
1.000000000000000   0.001087128723289   0.008283864475703
1.000000000000000   0.001110579961784   -0.009382794631952
1.000000000000000   0.001112664470854   -0.009394255261846
1.000000000000000   0.001179423129155   -0.008630967912241
1.000000000000000   0.001203222010458   0.001818568244234
1.000000000000000   0.001228178708138   0.001936247831896
1.000000000000000   0.001257719303210   -0.001212285645551
1.000000000000000   0.001264437004473   0.008967403157996
1.000000000000000   0.001274819776577   0.000191793305713
1.000000000000000   0.001312331477547   0.003979103783698
1.000000000000000   0.001321325779174   -0.002041353450378
1.000000000000000   0.001317996076169   0.005555624466500
1.000000000000000   0.001320004423572   0.005931617481193
1.000000000000000   0.001364946899740   -0.009730685613017
1.000000000000000   0.001385038526105   -0.009661714458487
1.000000000000000   0.001372870514292   0.005753744567260
1.000000000000000   0.001413418641256   -0.005692801292174
1.000000000000000   0.001416799417578   -0.001462923245899
1.000000000000000   0.001416931822408   0.002190615016745
1.000000000000000   0.001427090883788   -0.003973230409491
1.000000000000000   0.001421941653590   0.007634307975318
1.000000000000000   0.001444756663590   -0.007671524935167
1.000000000000000   0.001447968860754   -0.007791767429902
1.000000000000000   0.001443830784420   -0.002918127895414
1.000000000000000   0.001462563048070   -0.005818537294790
1.000000000000000   0.001451030753706   0.007843739279522
1.000000000000000   0.001481242071024   -0.008993902345455
1.000000000000000   0.001470509200765   0.004681329117250
1.000000000000000   0.001501801171709   -0.000592725190380
1.000000000000000   0.001514300792363   -0.007388775702081
1.000000000000000   0.001515341694201   -0.004935454604610
1.000000000000000   0.001517729808754   -0.007386315580487
1.000000000000000   0.001525949526889   -0.004956462975476
1.000000000000000   0.001532247973718   -0.007958552249197
1.000000000000000   0.001530013853367   0.003184793689772
1.000000000000000   0.001535772262463   0.002237037974113
1.000000000000000   0.001550722336440   -0.000834052044190
1.000000000000000   0.001580542723608   -0.004785804273136
1.000000000000000   0.001587919263953   0.000931498599714
1.000000000000000   0.001597456956611   -0.003523255798184
1.000000000000000   0.001596811097674   0.007323946322447
1.000000000000000   0.001606779594744   0.001049548398246
1.000000000000000   0.001614224992225   -0.003233832601371
1.000000000000000   0.001621114783456   0.004352730998568
1.000000000000000   0.001643904442564   -0.003663137559943
1.000000000000000   0.001640582806433   0.006449565880479
1.000000000000000   0.001644066119350   0.005068868561176
1.000000000000000   0.001649538221820   0.003412007054904
1.000000000000000   0.001649586969220   0.009672414739774
1.000000000000000   0.001720146926208   0.009672490650704
1.000000000000000   0.001730240749136   0.000716158873633
1.000000000000000   0.001755856866923   -0.000245396648647
1.000000000000000   0.001771805172411   0.002739719124563
1.000000000000000   0.001783513350760   0.002053955291217
1.000000000000000   0.001807190704223   -0.010289651325131
1.000000000000000   0.001802950979307   0.004256090143323
1.000000000000000   0.001827140469736   0.008776154311147
1.000000000000000   0.001856556405520   -0.002236599022954
1.000000000000000   0.001856515673093   0.007201544739062
1.000000000000000   0.001862385435819   0.008655441816931
1.000000000000000   0.001900969166795   -0.006002995746835
1.000000000000000   0.001902124327768   -0.006550953804501
1.000000000000000   0.001899594352022   0.009530919214190
1.000000000000000   0.001914276655757   0.005124169124116
1.000000000000000   0.001935143192008   -0.006519410000609
1.000000000000000   0.001949813244956   -0.006482330563689
1.000000000000000   0.001966000145938   -0.002206632143000
1.000000000000000   0.002029920171809   0.005919131920929
1.000000000000000   0.002046799530734   0.009151592294697
1.000000000000000   0.002065910060151   0.000545689841241
1.000000000000000   0.002067847483116   0.002782301707399
1.000000000000000   0.002084275859447   0.001592331984710
1.000000000000000   0.002090819018066   -0.001008713080572
1.000000000000000   0.002087207322961   0.008274714446530
1.000000000000000   0.002094932211423   0.003759490057144
1.000000000000000   0.002117917278960   -0.008372356504292
1.000000000000000   0.002100183943011   0.005335122478660
1.000000000000000   0.002135305833004   -0.007345033681408
1.000000000000000   0.002143031958727   -0.009029661286190
1.000000000000000   0.002135644796793   -0.000047941488718
1.000000000000000   0.002134555968280   0.001584856879242
1.000000000000000   0.002169755868007   -0.005292467787374
1.000000000000000   0.002167128343786   0.006592499254579
1.000000000000000   0.002175887317981   0.000304124245751
1.000000000000000   0.002184063120604   -0.004488889616638
1.000000000000000   0.002192772226581   -0.008683272385155
1.000000000000000   0.002205334022921   -0.009520031136953
1.000000000000000   0.002230196050169   -0.003835253703484
1.000000000000000   0.002231297562190   -0.001668050070908
1.000000000000000   0.002221230467756   0.006765341042974
1.000000000000000   0.002241571394768   -0.005730446349748
1.000000000000000   0.002236631742829   -0.001720871850775
1.000000000000000   0.002248159982577   -0.009729679262621
1.000000000000000   0.002250640296239   -0.009345449804484
1.000000000000000   0.002257303144779   -0.003878111866972
1.000000000000000   0.002263837350089   0.006212905788833
1.000000000000000   0.002317216234812   0.009673260264912
1.000000000000000   0.002336403046439   -0.001339779022028
1.000000000000000   0.002352957349593   -0.002843867569069
1.000000000000000   0.002351393717298   -0.000313426879968
1.000000000000000   0.002376147245024   0.003696948579263
1.000000000000000   0.002391350689536   -0.002747699931311
1.000000000000000   0.002388353867285   0.008194719236873
1.000000000000000   0.002433128646242   0.003491639315711
1.000000000000000   0.002431281588905   0.007940841235414
1.000000000000000   0.002523164337976   -0.003412928343525
1.000000000000000   0.002524209952435   0.004642848447920
1.000000000000000   0.002523225457612   0.006898196196548
1.000000000000000   0.002574814237318   -0.007025073526420
1.000000000000000   0.002563240054235   0.001038051490422
1.000000000000000   0.002619000457977   -0.007020117794525
1.000000000000000   0.002658689607247   -0.004838220846856
1.000000000000000   0.002665695411110   -0.007902244011784
1.000000000000000   0.002666587292877   -0.004905662100650
1.000000000000000   0.002659869285328   -0.000403932870657
1.000000000000000   0.002705704325634   -0.010288373034014
1.000000000000000   0.002696440056234   0.007572530154801
1.000000000000000   0.002709164701943   0.007238466586221
1.000000000000000   0.002721861328132   0.003984278205571
1.000000000000000   0.002731925618270   0.005887135249718
1.000000000000000   0.002772457771700   -0.009284529078543
1.000000000000000   0.002746733607134   0.005467096167456
1.000000000000000   0.002762409717117   0.001935197722913
1.000000000000000   0.002755523068598   0.009082987074673
1.000000000000000   0.002773697868451   0.002510573353651
1.000000000000000   0.002784236462458   -0.002009601215506
1.000000000000000   0.002803117805800   -0.005898177228238
1.000000000000000   0.002790729508920   0.003160800272431
1.000000000000000   0.002781938914079   0.008476949069421
1.000000000000000   0.002794082839811   0.004602993464933
1.000000000000000   0.002798653054169   0.002282853528969
1.000000000000000   0.002796477141168   0.004604974963442
1.000000000000000   0.002808833589576   0.002308165497499
1.000000000000000   0.002821396012669   0.005708889304145
1.000000000000000   0.002841324168021   0.008702732814747
1.000000000000000   0.002895789829917   -0.004113659138923
1.000000000000000   0.002888805683954   0.004990653046779
1.000000000000000   0.002925672970489   -0.006324137822178
1.000000000000000   0.002912537087372   0.002756820928450
1.000000000000000   0.002939351480636   -0.006187327432772
1.000000000000000   0.002940514973906   -0.004405884117656
1.000000000000000   0.002936746107920   -0.001079399760124
1.000000000000000   0.002945040671381   -0.001080891233564
1.000000000000000   0.002956025409223   -0.006425779036959
1.000000000000000   0.002954218309946   -0.002594722512242
1.000000000000000   0.002958369550312   -0.003385954856969
1.000000000000000   0.002992531522528   -0.002609932750261
1.000000000000000   0.003008048881289   0.001108559751325
1.000000000000000   0.003060903234984   -0.007789520944916
1.000000000000000   0.003081034724678   -0.005267717091994
1.000000000000000   0.003091060394479   0.001350175214335
1.000000000000000   0.003076770682644   0.009674568300626
1.000000000000000   0.003125049522143   -0.007641575034430
1.000000000000000   0.003138270241584   -0.008586306639754
1.000000000000000   0.003104151441339   0.009674622332464
1.000000000000000   0.003138808786148   0.000308680757869
1.000000000000000   0.003161339829863   -0.009728121444688
1.000000000000000   0.003168848839995   -0.002997034716589
1.000000000000000   0.003195250598636   -0.003821242315721
1.000000000000000   0.003210601315814   -0.008113371440028
1.000000000000000   0.003227374875171   0.000709535224440
1.000000000000000   0.003227567434847   0.006577036838295
1.000000000000000   0.003254629472194   0.000013180590386
1.000000000000000   0.003273643312298   -0.001676381318879
1.000000000000000   0.003303095825085   0.003666079732888
1.000000000000000   0.003342251590744   -0.008988478175042
1.000000000000000   0.003350725811305   0.003660684781427
1.000000000000000   0.003395845192649   -0.003823354182321
1.000000000000000   0.003379380275713   0.004481180813726
1.000000000000000   0.003387143423838   0.006593566810426
1.000000000000000   0.003430657384740   -0.010286970636675
1.000000000000000   0.003426847020028   -0.006015858080940
1.000000000000000   0.003430411886536   -0.006748955620236
1.000000000000000   0.003418405457593   -0.000823098721494
1.000000000000000   0.003448570213905   -0.003083948056154
1.000000000000000   0.003481994448193   0.001522334394604
1.000000000000000   0.003503982909863   -0.007387305167062
1.000000000000000   0.003495064136575   -0.000153648372418
1.000000000000000   0.003556867081866   -0.004596694511898
1.000000000000000   0.003551780129216   0.008812456001520
1.000000000000000   0.003588538721930   0.005759279167822
1.000000000000000   0.003604529058714   -0.000355077491341
1.000000000000000   0.003601746357862   0.007880574604191
1.000000000000000   0.003645492776257   -0.007408901926549
1.000000000000000   0.003624968061406   0.004104311056174
1.000000000000000   0.003623388938992   0.005218007880400
1.000000000000000   0.003630104642090   0.003025155153025
1.000000000000000   0.003651110020172   -0.005168474362688
1.000000000000000   0.003622503428639   0.007874152175905
1.000000000000000   0.003625660664688   0.007270256767004
1.000000000000000   0.003660795191186   -0.003368177602589
1.000000000000000   0.003638046017927   0.007841304529509
1.000000000000000   0.003677803848122   -0.009124010796105
1.000000000000000   0.003643577252283   0.006121320761703
1.000000000000000   0.003663278649377   -0.001838914763698
1.000000000000000   0.003697555049023   -0.009726961607777
1.000000000000000   0.003687081173277   -0.002212068617977
1.000000000000000   0.003695147128007   -0.005040930047914
1.000000000000000   0.003728084650050   -0.009306035812134
1.000000000000000   0.003699964248327   0.003180419483942
1.000000000000000   0.003700003666482   0.007075616045016
1.000000000000000   0.003728892371075   -0.002020274579394
1.000000000000000   0.003736000544338   -0.004124949814610
1.000000000000000   0.003708802127880   0.009465867116359
1.000000000000000   0.003726710689983   0.004823106153758
1.000000000000000   0.003754417484857   0.005528305913638
1.000000000000000   0.003749962486214   0.008113818337626
1.000000000000000   0.003771878670586   0.002117615548165
1.000000000000000   0.003823255616053   -0.005461218481999
1.000000000000000   0.003796024102719   0.009676146516888
1.000000000000000   0.003821336268856   0.001935512866658
1.000000000000000   0.003865546384990   0.002365958219069
1.000000000000000   0.003865390565046   0.009218607944077
1.000000000000000   0.003948735303776   -0.008315253292353
1.000000000000000   0.003943616213523   -0.002643507043531
1.000000000000000   0.003941662427425   -0.001320084927352
1.000000000000000   0.003938694005010   0.000786356233606
1.000000000000000   0.003988534323302   -0.006437167023924
1.000000000000000   0.004040942914247   -0.008702177332929
1.000000000000000   0.004031064521757   0.000372911646864
1.000000000000000   0.004027765098792   0.001818943925900
1.000000000000000   0.004046388516335   0.000923885793665
1.000000000000000   0.004105433806310   -0.007996879749958
1.000000000000000   0.004117484947583   -0.010285336311567
1.000000000000000   0.004172701991900   -0.006411366350345
1.000000000000000   0.004156982130688   0.000984593097923
1.000000000000000   0.004188692824820   -0.005699802112651
1.000000000000000   0.004188578278915   -0.004021312667649
1.000000000000000   0.004183033982158   0.005492328168630
1.000000000000000   0.004189621093668   0.003340769149376
1.000000000000000   0.004229745259399   0.004622390160998
1.000000000000000   0.004262954133646   -0.005938511737304
1.000000000000000   0.004286349029278   0.004141560944366
1.000000000000000   0.004320018474434   -0.007105948143215
1.000000000000000   0.004284449577407   0.007738784759021
1.000000000000000   0.004289817634466   0.006902166436986
1.000000000000000   0.004314884144899   0.004215694397768
1.000000000000000   0.004356253029848   0.001309587211827
1.000000000000000   0.004346816551168   0.009019789183454
1.000000000000000   0.004390644024829   -0.006686512678136
1.000000000000000   0.004413787562793   0.003685377740220
1.000000000000000   0.004408772718573   0.008600013701962
1.000000000000000   0.004437998576903   -0.001130476958532
1.000000000000000   0.004436860005336   0.000139373440595
1.000000000000000   0.004457150431599   -0.003367378717905
1.000000000000000   0.004463137089196   -0.002004241154256
1.000000000000000   0.004473086500113   -0.004660152920906
1.000000000000000   0.004436762655747   0.008870576984191
1.000000000000000   0.004472131093583   -0.003517715512162
1.000000000000000   0.004495834975984   -0.009383244427154
1.000000000000000   0.004460706015414   0.006385317444637
1.000000000000000   0.004482563419767   -0.000502340230335
1.000000000000000   0.004477321189318   0.002561186819756
1.000000000000000   0.004479274260736   0.005101448090259
1.000000000000000   0.004513827833879   -0.002984554116020
1.000000000000000   0.004534510069253   -0.009724788831480
1.000000000000000   0.004523207635556   0.002821514012894
1.000000000000000   0.004548084589960   -0.003118170112762
1.000000000000000   0.004548137520737   -0.003117390700440
1.000000000000000   0.004527908181164   0.006324225959346
1.000000000000000   0.004563285566207   -0.000760562605643
1.000000000000000   0.004588597620223   -0.007841828017484
1.000000000000000   0.004609290670630   -0.000206102364997
1.000000000000000   0.004614845686261   0.000628191013159
1.000000000000000   0.004640839631847   -0.007513985136754
1.000000000000000   0.004614163457904   0.006094433064580
1.000000000000000   0.004666210885759   -0.002599185282526
1.000000000000000   0.004695328039235   -0.008756971684314
1.000000000000000   0.004685745737937   -0.004742470874424
1.000000000000000   0.004668271930839   0.008225198923363
1.000000000000000   0.004681389164505   0.007298897171842
1.000000000000000   0.004715249446621   -0.001627337693931
1.000000000000000   0.004736419624832   -0.005262113186348
1.000000000000000   0.004752560300197   -0.010283560478180
1.000000000000000   0.004698882221190   0.009678595184640
1.000000000000000   0.004781279245330   -0.008075431694761
1.000000000000000   0.004798131580502   -0.008228204576649
1.000000000000000   0.004781280977524   0.008163680655851
1.000000000000000   0.004803672306084   0.005114125730419
1.000000000000000   0.004854159421509   -0.008941795379591
1.000000000000000   0.004840293628777   0.002147188760131
1.000000000000000   0.004864531267199   0.009679100955778
1.000000000000000   0.004892318448357   0.001399992642964
1.000000000000000   0.004921774797210   0.002952933818686
1.000000000000000   0.004967257967851   -0.009723492118178
1.000000000000000   0.004953255141585   0.002097282632507
1.000000000000000   0.004952539695751   0.003577528264905
1.000000000000000   0.004983377254481   -0.000830046245388
1.000000000000000   0.005061031535457   0.001684399788006
1.000000000000000   0.005055034432779   0.004438806818018
1.000000000000000   0.005087784355149   -0.002357347889391
1.000000000000000   0.005063493131286   0.005854381311166
1.000000000000000   0.005162274407752   -0.006594683430428
1.000000000000000   0.005123607705003   0.007411745163764
1.000000000000000   0.005146323563740   0.000761074863480
1.000000000000000   0.005185491724554   -0.010282204127690
1.000000000000000   0.005133809639546   0.005651541197035
1.000000000000000   0.005165001468249   -0.001728098398546
1.000000000000000   0.005152349959314   0.003341874053662
1.000000000000000   0.005177212300922   0.000737419972044
1.000000000000000   0.005155214756963   0.007519635314561
1.000000000000000   0.005215981101775   -0.009077653355826
1.000000000000000   0.005210490429851   -0.007303088750169
1.000000000000000   0.005178451892345   0.004717321551812
1.000000000000000   0.005170578973536   0.008923960769496
1.000000000000000   0.005216754826063   -0.004093797983189
1.000000000000000   0.005262538250684   -0.005987977715216
1.000000000000000   0.005242976057651   0.004061549733166
1.000000000000000   0.005278709546082   -0.004433420239065
1.000000000000000   0.005292762050703   -0.006306409864318
1.000000000000000   0.005305664819137   -0.009556122242579
1.000000000000000   0.005269974102657   0.002422537494138
1.000000000000000   0.005311552434766   -0.009275133870760
1.000000000000000   0.005306913266607   0.000123829551384
1.000000000000000   0.005309254179399   0.000122633451509
1.000000000000000   0.005334642040962   -0.004295904045367
1.000000000000000   0.005351096000070   -0.007031773466963
1.000000000000000   0.005355438166614   -0.005736328602303
1.000000000000000   0.005356399881178   -0.005640647125188
1.000000000000000   0.005313120681252   0.008478687550747
1.000000000000000   0.005325451249766   0.009096996096714
1.000000000000000   0.005400067518341   -0.009722077078836
1.000000000000000   0.005376370258443   -0.001649212712827
1.000000000000000   0.005422800548400   -0.003414383665358
1.000000000000000   0.005391321100695   0.006824506624034
1.000000000000000   0.005469697411962   -0.007872678998546
1.000000000000000   0.005426256174905   0.006964926121802
1.000000000000000   0.005472329355557   -0.001311141781749
1.000000000000000   0.005491980708584   -0.005469716575316
1.000000000000000   0.005505538705066   -0.004859555461415
1.000000000000000   0.005548785577980   -0.002834936529674
1.000000000000000   0.005550275176122   -0.002549840523805
1.000000000000000   0.005527296916667   0.006287377030152
1.000000000000000   0.005536487806049   0.006974605673879
1.000000000000000   0.005578615337529   0.001618271578357
1.000000000000000   0.005580579910577   0.004818326034322
1.000000000000000   0.005633562040744   -0.008538597088675
1.000000000000000   0.005635546536144   -0.008439177076133
1.000000000000000   0.005602306982323   0.007900536270820
1.000000000000000   0.005633247614733   -0.000472914987476
1.000000000000000   0.005686378645597   -0.007077979044382
1.000000000000000   0.005750863941423   -0.008033401652153
1.000000000000000   0.005746476373312   -0.003253414325640
1.000000000000000   0.005791925670579   -0.003168815120192
1.000000000000000   0.005782546061233   0.005346441710483
1.000000000000000   0.005846815419329   -0.010279904103092
1.000000000000000   0.005784456958952   0.008161258234738
1.000000000000000   0.005815240761143   0.002624550363764
1.000000000000000   0.005810648196746   0.005271259199438
1.000000000000000   0.005830398210375   0.003194381225929
1.000000000000000   0.005844225575367   0.001029747980699
1.000000000000000   0.005857366242415   -0.000606666741708
1.000000000000000   0.005872250184881   -0.001998924319618
1.000000000000000   0.005880963921452   -0.004119687677145
1.000000000000000   0.005900194437297   -0.007958324686370
1.000000000000000   0.005847110309548   0.009682461241719
1.000000000000000   0.005865046705579   0.006137318837158
1.000000000000000   0.005907841459346   -0.004076099393780
1.000000000000000   0.005898129107355   0.001214931638698
1.000000000000000   0.005875963064560   0.008196157922848
1.000000000000000   0.005918545301293   -0.002165746779867
1.000000000000000   0.005921138854341   0.002969416328488
1.000000000000000   0.005940554317355   -0.000935026351808
1.000000000000000   0.005903910677815   0.009330409852493
1.000000000000000   0.005920120509023   0.009372162155554
1.000000000000000   0.005964477532429   -0.000949308359900
1.000000000000000   0.005971871928551   0.005836228687374
1.000000000000000   0.005997823217103   0.003976133189967
1.000000000000000   0.006010792612189   0.002214481247002
1.000000000000000   0.006054293193645   -0.007505315723193
1.000000000000000   0.006055767067868   -0.006437987773265
1.000000000000000   0.006036460867455   0.003843065005380
1.000000000000000   0.006037933352632   0.004176688131709
1.000000000000000   0.006029701221409   0.007344678016179
1.000000000000000   0.006031781839281   0.008934676142748
1.000000000000000   0.006065331998562   0.000331091614323
1.000000000000000   0.006122304060285   -0.009250557108173
1.000000000000000   0.006129395077894   -0.006686335544818
1.000000000000000   0.006159690355455   0.000520867805164
1.000000000000000   0.006168212493891   -0.001648972625000
1.000000000000000   0.006201500132147   -0.004897206017706
1.000000000000000   0.006223467239477   -0.005354067165093
1.000000000000000   0.006289438700591   -0.009718798506214
1.000000000000000   0.006281303008804   -0.006041959335603
1.000000000000000   0.006299971184270   -0.008890229707806
1.000000000000000   0.006289645450590   -0.000201181383118
1.000000000000000   0.006273440507689   0.005149393773096
1.000000000000000   0.006339313620123   -0.004651676927927
1.000000000000000   0.006391777737073   -0.003064926190943
1.000000000000000   0.006384708298013   0.001425303336730
1.000000000000000   0.006401770462211   -0.000214288966458
1.000000000000000   0.006476882624128   -0.007306955986563
1.000000000000000   0.006425119429034   0.006652175405528
1.000000000000000   0.006508669904702   -0.006906089423798
1.000000000000000   0.006535869751335   -0.010277214296617
1.000000000000000   0.006501375078435   0.008770091748598
1.000000000000000   0.006584155202229   -0.008760556866762
1.000000000000000   0.006529728041243   0.004583940058015
1.000000000000000   0.006559969283340   -0.002534662517940
1.000000000000000   0.006595900262272   -0.007057166283683
1.000000000000000   0.006540610436967   0.007423796471794
1.000000000000000   0.006553871892004   0.005849135897424
1.000000000000000   0.006620788372131   -0.008249960751694
1.000000000000000   0.006618895629172   -0.005818575064839
1.000000000000000   0.006592208111235   0.000617180947393
1.000000000000000   0.006649144812423   -0.005733015609711
1.000000000000000   0.006630357552583   -0.001014840179492
1.000000000000000   0.006631384227299   0.001858711667520
1.000000000000000   0.006614982549578   0.007894308350779
1.000000000000000   0.006613467330519   0.009439730855420
1.000000000000000   0.006677781949246   -0.003650811562300
1.000000000000000   0.006634949279167   0.006697122766647
1.000000000000000   0.006635072293392   0.007921887363358
1.000000000000000   0.006710394283672   -0.008503040179786
1.000000000000000   0.006648454694268   0.006687268797100
1.000000000000000   0.006647309308674   0.007729442685525
1.000000000000000   0.006696254466375   -0.003582533757565
1.000000000000000   0.006692983247428   0.001875926875376
1.000000000000000   0.006719792315795   -0.002449416351991
1.000000000000000   0.006719000126529   0.000802911176228
1.000000000000000   0.006756118186128   -0.005671700824639
1.000000000000000   0.006706161933697   0.006554228904565
1.000000000000000   0.006693933963396   0.009685851871119
1.000000000000000   0.006777690218838   -0.009716786496416
1.000000000000000   0.006729668362294   0.003719149129895
1.000000000000000   0.006763353649880   -0.000438949838252
1.000000000000000   0.006789284358563   -0.006231288514243
1.000000000000000   0.006805938417002   -0.007863336061508
1.000000000000000   0.006781621663226   -0.001580501362736
1.000000000000000   0.006779758656608   0.000284079131764
1.000000000000000   0.006760719693377   0.005519974564664
1.000000000000000   0.006816136963038   -0.004578570343334
1.000000000000000   0.006789935467558   0.002926774191505
1.000000000000000   0.006815272673048   -0.001234686310279
1.000000000000000   0.006852425006961   0.004563072202768
1.000000000000000   0.006891384843987   -0.002076467580397
1.000000000000000   0.006895855098879   -0.001803512989498
1.000000000000000   0.006925075023105   -0.004273289226927
1.000000000000000   0.006893997646183   0.003107047175313
1.000000000000000   0.006914335976082   0.002666700735432
1.000000000000000   0.006985936940769   -0.009429556850673
1.000000000000000   0.006988895944567   -0.004844156394551
1.000000000000000   0.006938674875743   0.006793743578209
1.000000000000000   0.006936482931977   0.008173372827642
1.000000000000000   0.007009153902656   -0.005687694525693
1.000000000000000   0.007065543675633   -0.009416437732434
1.000000000000000   0.007049271405074   0.003987307852496
1.000000000000000   0.007053144501418   0.004007121945355
1.000000000000000   0.007143413348120   -0.010274594339104
1.000000000000000   0.007103671683531   0.004790273409264
1.000000000000000   0.007215810781978   -0.006523207211950
1.000000000000000   0.007214510051232   -0.004222636425906
1.000000000000000   0.007218234195796   -0.004878079616584
1.000000000000000   0.007247817272273   -0.003416872884183
1.000000000000000   0.007231894565721   0.009028497208666
1.000000000000000   0.007255371993449   0.005399218822789
1.000000000000000   0.007268533186109   0.005372572551571
1.000000000000000   0.007297242720400   0.000028223212281
1.000000000000000   0.007319749470445   -0.000250287990889
1.000000000000000   0.007323158135886   0.000970097659688
1.000000000000000   0.007370166971382   -0.007644035671702
1.000000000000000   0.007353203043958   -0.000172365393520
1.000000000000000   0.007386835888142   -0.007026934226195
1.000000000000000   0.007347859288712   0.001623958789097
1.000000000000000   0.007326515711966   0.009004783673084
1.000000000000000   0.007329735831968   0.008997991164454
1.000000000000000   0.007387090427085   0.001533257049665
1.000000000000000   0.007428582565348   -0.007053056486978
1.000000000000000   0.007470463991649   -0.007327973464783
1.000000000000000   0.007438434468295   0.002562026574236
1.000000000000000   0.007504097317411   -0.009713514824966
1.000000000000000   0.007506125362933   -0.009701308656444
1.000000000000000   0.007513412973742   -0.003735230196728
1.000000000000000   0.007524610286989   -0.006047559000455
1.000000000000000   0.007472866524204   0.006023648641926
1.000000000000000   0.007485832817625   0.003337551953193
1.000000000000000   0.007501292275908   0.000722630672888
1.000000000000000   0.007546523178515   -0.008543667893657
1.000000000000000   0.007512797181286   -0.000965205869447
1.000000000000000   0.007530150922291   -0.000913041493719
1.000000000000000   0.007545027305075   -0.002896034127374
1.000000000000000   0.007504961741428   0.006042736863959
1.000000000000000   0.007493767051344   0.009689474851720
1.000000000000000   0.007496741373411   0.009687948448440
1.000000000000000   0.007497171005133   0.009689491143464
1.000000000000000   0.007558050174889   -0.002927445122221
1.000000000000000   0.007529249000222   0.003494335377842
1.000000000000000   0.007536442590263   0.009529973164049
1.000000000000000   0.007589869853219   0.001984059773696
1.000000000000000   0.007645144259692   -0.008746701511619
1.000000000000000   0.007634567124492   -0.005322919819409
1.000000000000000   0.007649615740639   -0.008246692580151
1.000000000000000   0.007661340331722   -0.008858787082837
1.000000000000000   0.007609548422085   0.007396989462710
1.000000000000000   0.007633903287252   0.007357010431300
1.000000000000000   0.007760178654197   -0.010271696561127
1.000000000000000   0.007674594871928   0.007968890041638
1.000000000000000   0.007777334893834   -0.004399447028282
1.000000000000000   0.007771624574973   -0.003006555992430
1.000000000000000   0.007785050244011   -0.001564326442576
1.000000000000000   0.007804987578327   -0.003840489437267
1.000000000000000   0.007808821834591   -0.004536662041873
1.000000000000000   0.007798210949500   -0.002187742097140
1.000000000000000   0.007781810724471   0.002049007418537
1.000000000000000   0.007766867291096   0.006620522054032
1.000000000000000   0.007796228132632   0.002882169584983
1.000000000000000   0.007815338341593   0.000685073851936
1.000000000000000   0.007806596508797   0.002880291000952
1.000000000000000   0.007891287283500   -0.004120062015506
1.000000000000000   0.007858402363761   0.004323407958617
1.000000000000000   0.007860356225788   0.004323159742764
1.000000000000000   0.007858076170349   0.008200978124616
1.000000000000000   0.007948544241331   -0.009563107714077
1.000000000000000   0.007902353982662   0.001434452518056
1.000000000000000   0.007883423534820   0.007190053264551
1.000000000000000   0.007953773185601   -0.006758757868072
1.000000000000000   0.007956248314557   -0.006016562727140
1.000000000000000   0.007905546917069   0.008629223582480
1.000000000000000   0.008010785938975   -0.009711035705314
1.000000000000000   0.007945341074809   0.003799922161779
1.000000000000000   0.008029438146931   -0.009261575879283
1.000000000000000   0.007980591759380   0.003999808496725
1.000000000000000   0.008043553401851   -0.005361431840025
1.000000000000000   0.008055047689726   -0.006373388896447
1.000000000000000   0.008016808245223   0.006884714718281
1.000000000000000   0.008046090097996   0.006872239123120
1.000000000000000   0.008102366255958   -0.003450233981600
1.000000000000000   0.008090329108654   -0.000089098082773
1.000000000000000   0.008122940462643   -0.004870806117992
1.000000000000000   0.008054025035552   0.008664550435171
1.000000000000000   0.008078124967870   0.005098009095616
1.000000000000000   0.008157272344565   -0.005571541557289
1.000000000000000   0.008155658727220   -0.001852690733124
1.000000000000000   0.008157342313320   -0.001848111566709
1.000000000000000   0.008124916846441   0.009587454371230
1.000000000000000   0.008157133101824   0.004786915340091
1.000000000000000   0.008193690750929   -0.001829657324859
1.000000000000000   0.008191009202770   0.002399530967038
1.000000000000000   0.008231179456630   0.000163780542461
1.000000000000000   0.008207355890773   0.005885146278491
1.000000000000000   0.008190205965121   0.009692962195133
1.000000000000000   0.008259730467746   -0.001748536519288
1.000000000000000   0.008311067023242   -0.007665106690585
1.000000000000000   0.008279309206594   0.001740043256709
1.000000000000000   0.008307569236812   -0.000704265610870
1.000000000000000   0.008306884742231   0.001047912803161
1.000000000000000   0.008353512945727   -0.005595230719897
1.000000000000000   0.008337011831375   -0.000602482885708
1.000000000000000   0.008316237466419   0.006156144852482
1.000000000000000   0.008396726726902   -0.007946107756648
1.000000000000000   0.008402977131125   -0.007932533642833
1.000000000000000   0.008419113833200   -0.010268335647933
1.000000000000000   0.008430724281362   -0.002713553326580
1.000000000000000   0.008396666841393   0.005527229653232
1.000000000000000   0.008472212772039   -0.007091991805499
1.000000000000000   0.008391607991388   0.009267459009190
1.000000000000000   0.008428318673855   0.003275124588524
1.000000000000000   0.008456467004704   0.001049752313222
1.000000000000000   0.008455940538174   0.003270269404331
1.000000000000000   0.008432713002963   0.007747634857587
1.000000000000000   0.008537184522178   -0.009165710291622
1.000000000000000   0.008501551826347   -0.001140163864175
1.000000000000000   0.008559062140592   -0.008520380988334
1.000000000000000   0.008603438569560   -0.001128309648343
1.000000000000000   0.008640317866137   0.000324064882071
1.000000000000000   0.008705187102446   -0.004036839082542
1.000000000000000   0.008676671572097   0.001798941479060
1.000000000000000   0.008637874504795   0.009288726024078
1.000000000000000   0.008645787754175   0.008485206188870
1.000000000000000   0.008732913864139   -0.004552849101970
1.000000000000000   0.008704742308007   0.002333882384113
1.000000000000000   0.008716799564221   0.000587660708226
1.000000000000000   0.008783919590172   -0.008789466967739
1.000000000000000   0.008758971457905   -0.003526037155659
1.000000000000000   0.008782330573220   -0.003623321316208
1.000000000000000   0.008821502714613   -0.009706732212490
1.000000000000000   0.008784490934790   -0.002931768935080
1.000000000000000   0.008821431881858   -0.008784793095017
1.000000000000000   0.008762546452543   0.002396688504532
1.000000000000000   0.008765607393858   0.004041339794593
1.000000000000000   0.008816116332159   -0.004446697767323
1.000000000000000   0.008786367965452   0.001562102921026
1.000000000000000   0.008790913150168   0.002493469353295
1.000000000000000   0.008779604581199   0.006292449327313
1.000000000000000   0.008856908053948   -0.006975447915738
1.000000000000000   0.008796193764548   0.004582413895832
1.000000000000000   0.008877906865333   -0.006400895760860
1.000000000000000   0.008849168982043   -0.000394620767102
1.000000000000000   0.008798555018590   0.008661929408688
1.000000000000000   0.008834531133650   0.004475602910063
1.000000000000000   0.008898367527170   -0.005314958314838
1.000000000000000   0.008890090670952   -0.003188243216135
1.000000000000000   0.008858846191424   0.005552275330887
1.000000000000000   0.008935684425902   -0.006115744438091
1.000000000000000   0.008870809528416   0.006877863665181
1.000000000000000   0.008872120624155   0.007838584440700
1.000000000000000   0.008876248129785   0.007853511307166
1.000000000000000   0.008888412020384   0.006834481362505
1.000000000000000   0.008982897586433   -0.006679504344991
1.000000000000000   0.008963239981562   0.003648398170307
1.000000000000000   0.008991543818772   -0.000066291732396
1.000000000000000   0.009062244957350   -0.010264791345810
1.000000000000000   0.009075515273965   -0.007797850184728
1.000000000000000   0.009032228804345   0.009697592132819
1.000000000000000   0.009104040250843   -0.002254364352763
1.000000000000000   0.009064651215181   0.005778238336733
1.000000000000000   0.009083837194755   0.004983454033905
1.000000000000000   0.009072960339535   0.009592762220264
1.000000000000000   0.009136993421842   -0.000796939415483
1.000000000000000   0.009103426223100   0.007343194192914
1.000000000000000   0.009191421901899   -0.007447770844846
1.000000000000000   0.009296594660080   -0.009704017649201
1.000000000000000   0.009292321690862   -0.008975289095938
1.000000000000000   0.009287532216537   -0.008158473781234
1.000000000000000   0.009287115623211   -0.008087426358178
1.000000000000000   0.009283228870214   -0.007424564600028
1.000000000000000   0.009278785885600   -0.006666840969086
1.000000000000000   0.009274229010647   -0.005889694043222
1.000000000000000   0.009271372340812   -0.005402506616858
1.000000000000000   0.009266352422203   -0.004546390450354
1.000000000000000   0.009261781981388   -0.003766929950389
1.000000000000000   0.009257987048011   -0.003119727462140
1.000000000000000   0.009252563922859   -0.002194846906052
1.000000000000000   0.009248978488439   -0.001583373173082
1.000000000000000   0.009248005586746   -0.001417450788136
1.000000000000000   0.009244563952917   -0.000830501359554
1.000000000000000   0.009239944502926   -0.000042682646740
1.000000000000000   0.009235284305275   0.000752085328377
1.000000000000000   0.009231348390132   0.001423331387429
1.000000000000000   0.009226607021573   0.002231942560332
1.000000000000000   0.009222907466093   0.002862878936328
1.000000000000000   0.009218035438800   0.003693773150665
1.000000000000000   0.009214001429472   0.004381748568149
1.000000000000000   0.009210522584165   0.004975044184929
1.000000000000000   0.009205609349727   0.005812966023879
1.000000000000000   0.009200863614983   0.006622321822597
1.000000000000000   0.009196668006303   0.007337857013279
1.000000000000000   0.009192483724883   0.008051460409513
1.000000000000000   0.009187963076734   0.008822429077278
1.000000000000000   0.009183507231911   0.009582345937585
1.000000000000000   0.009182826339531   0.009698467934639
1.000000000000000   0.009853608156203   -0.009336233795732
1.000000000000000   0.009848804270933   -0.008563452678318
1.000000000000000   0.009846044967085   -0.008119574902010
1.000000000000000   0.009843763635905   -0.007752586608405
1.000000000000000   0.009839348143293   -0.007042284608482
1.000000000000000   0.009834577485205   -0.006274848610123
1.000000000000000   0.009830647896511   -0.005642711960028
1.000000000000000   0.009826472432040   -0.004971022292573
1.000000000000000   0.009821388838668   -0.004153245691862
1.000000000000000   0.009816954616393   -0.003439930728737
1.000000000000000   0.009812068093976   -0.002653856115889
1.000000000000000   0.009807293077303   -0.001885718970076
1.000000000000000   0.009804876965896   -0.001497049139857
1.000000000000000   0.009802536754183   -0.001120588978724
1.000000000000000   0.009798263600613   -0.000433184470748
1.000000000000000   0.009793344641867   0.000358108039996
1.000000000000000   0.009788788106416   0.001091099016863
1.000000000000000   0.009784188353837   0.001831042154154
1.000000000000000   0.009779714116249   0.002550794214917
1.000000000000000   0.009775170350466   0.003281730988280
1.000000000000000   0.009770449547623   0.004041146979981
1.000000000000000   0.009766467195157   0.004681771519374
1.000000000000000   0.009762018551375   0.005397406410563
1.000000000000000   0.009756898549261   0.006221039934718
1.000000000000000   0.009752158994464   0.006983472475591
1.000000000000000   0.009747716986369   0.007698039911274
1.000000000000000   0.009743102638260   0.008440330971049
1.000000000000000   0.009738344388755   0.009205770851970
1.000000000000000   0.009735621785760   0.009643744714062
